%YAML 1.1
%TAG !u! tag:unity3d.com,2011:
--- !u!21 &2100000
Material:
  serializedVersion: 6
  m_ObjectHideFlags: 0
  m_PrefabParentObject: {fileID: 0}
  m_PrefabInternal: {fileID: 0}
  m_Name: GroundTemp
  m_Shader: {fileID: 46, guid: 0000000000000000f000000000000000, type: 0}
  m_ShaderKeywords: _EMISSION
  m_LightmapFlags: 1
  m_CustomRenderQueue: -1
  stringTagMap: {}
  m_SavedProperties:
    serializedVersion: 2
    m_TexEnvs:
    - first:
        name: _BumpMap
      second:
        m_Texture: {fileID: 0}
        m_Scale: {x: 1, y: 1}
        m_Offset: {x: 0, y: 0}
    - first:
        name: _Caustics
      second:
        m_Texture: {fileID: 2800000, guid: eb9e91ee4c264b942a46baeec92ca0a4, type: 3}
        m_Scale: {x: 1, y: 1}
        m_Offset: {x: 0, y: 0}
    - first:
        name: _DecalTex
      second:
        m_Texture: {fileID: 0}
        m_Scale: {x: 1, y: 1}
        m_Offset: {x: 0, y: 0}
    - first:
        name: _DepthMap
      second:
        m_Texture: {fileID: 2800000, guid: ff6e0fbcfc24e4f95a2711ea0e73dd6a, type: 3}
        m_Scale: {x: 0.014, y: 0.014}
        m_Offset: {x: 0, y: 0}
    - first:
        name: _DetailAlbedoMap
      second:
        m_Texture: {fileID: 0}
        m_Scale: {x: 1, y: 1}
        m_Offset: {x: 0, y: 0}
    - first:
        name: _DetailMask
      second:
        m_Texture: {fileID: 0}
        m_Scale: {x: 1, y: 1}
        m_Offset: {x: 0, y: 0}
    - first:
        name: _DetailNormalMap
      second:
        m_Texture: {fileID: 0}
        m_Scale: {x: 1, y: 1}
        m_Offset: {x: 0, y: 0}
    - first:
        name: _DisplacementHeightMap
      second:
        m_Texture: {fileID: 2800000, guid: a782b26d6436b48d9882906b9f8ca31a, type: 2}
        m_Scale: {x: 1, y: 1}
        m_Offset: {x: 0, y: 0}
    - first:
        name: _EmissionMap
      second:
        m_Texture: {fileID: 0}
        m_Scale: {x: 1, y: 1}
        m_Offset: {x: 0, y: 0}
    - first:
        name: _Fresnel
      second:
        m_Texture: {fileID: 2800000, guid: 5b5c5575fd4c74abd9f7b30862fb76a3, type: 3}
        m_Scale: {x: 1, y: 1}
        m_Offset: {x: 0, y: 0}
    - first:
        name: _HeightMask
      second:
        m_Texture: {fileID: 2800000, guid: cff6f2c02e93742c095cd0c69d3d92ce, type: 3}
        m_Scale: {x: 1, y: 1}
        m_Offset: {x: 0, y: 0}
    - first:
        name: _MainTex
      second:
        m_Texture: {fileID: 0}
        m_Scale: {x: 1, y: 1}
        m_Offset: {x: 1, y: 1}
    - first:
        name: _MetallicGlossMap
      second:
        m_Texture: {fileID: 0}
        m_Scale: {x: 1, y: 1}
        m_Offset: {x: 0, y: 0}
    - first:
        name: _OcclusionMap
      second:
        m_Texture: {fileID: 0}
        m_Scale: {x: 1, y: 1}
        m_Offset: {x: 0, y: 0}
    - first:
        name: _ParallaxMap
      second:
        m_Texture: {fileID: 0}
        m_Scale: {x: 1, y: 1}
        m_Offset: {x: 0, y: 0}
    - first:
        name: _ReflectionTex
      second:
        m_Texture: {fileID: 0}
        m_Scale: {x: 1, y: 1}
        m_Offset: {x: 0, y: 0}
    - first:
        name: _ReflectiveColor
      second:
        m_Texture: {fileID: 2800000, guid: 17680dc3bf8f74b498b01cf1481e2593, type: 3}
        m_Scale: {x: 1, y: 1}
        m_Offset: {x: 0, y: 0}
    - first:
        name: _ReflectiveColorCube
      second:
        m_Texture: {fileID: 8900000, guid: 0620bdf0302d84423be4aa15b82a0e11, type: 2}
        m_Scale: {x: 0.15, y: 0.1}
        m_Offset: {x: 0, y: 0}
    - first:
        name: _RefractionTex
      second:
        m_Texture: {fileID: 0}
        m_Scale: {x: 1, y: 1}
        m_Offset: {x: 0, y: 0}
    - first:
        name: _SecondDisplacementHeightMap
      second:
        m_Texture: {fileID: 2800000, guid: 4facc21e08e3a43ed97c930f7dae6e7b, type: 2}
        m_Scale: {x: 1, y: 1}
        m_Offset: {x: 0, y: 0}
    - first:
        name: _ShoreTex
      second:
        m_Texture: {fileID: 0}
        m_Scale: {x: 1, y: 1}
        m_Offset: {x: 1, y: 1}
    - first:
        name: _SpecialWavesTex
      second:
        m_Texture: {fileID: 0}
        m_Scale: {x: 1, y: 1}
        m_Offset: {x: 0, y: 0}
    - first:
        name: _ThirdDisplacementHeightMap
      second:
        m_Texture: {fileID: 2800000, guid: dc30b984e8e3c4cdfb38d5fceb411602, type: 2}
        m_Scale: {x: 1, y: 1}
        m_Offset: {x: 0, y: 0}
    - first:
        name: _WaterHolesTex
      second:
        m_Texture: {fileID: 0}
        m_Scale: {x: 1, y: 1}
        m_Offset: {x: 0, y: 0}
    - first:
        name: _WavesTex
      second:
        m_Texture: {fileID: 0}
        m_Scale: {x: 1, y: 1}
        m_Offset: {x: 0, y: 0}
    - first:
        name: m_DisplacementHeightMap
      second:
        m_Texture: {fileID: 0}
        m_Scale: {x: 1, y: 1}
        m_Offset: {x: 0, y: 0}
    - first:
        name: m_SecondDisplacementHeightMap
      second:
        m_Texture: {fileID: 0}
        m_Scale: {x: 1, y: 1}
        m_Offset: {x: 0, y: 0}
    m_Floats:
    - first:
        name: _Alpha
      second: 0.7
    - first:
        name: _Ambient
      second: 1
    - first:
        name: _BumpScale
      second: 1
    - first:
        name: _Cutoff
      second: 0.5
    - first:
        name: _DetailNormalMapScale
      second: 1
    - first:
        name: _Displacement
      second: 0.27863377
    - first:
        name: _DisplacementTiling
      second: 18.586807
    - first:
        name: _DstBlend
      second: 0
    - first:
        name: _FadeExp
      second: 0.91503274
    - first:
        name: _FoamWaveDependency
      second: 0.10205479
    - first:
        name: _FresnelPower
      second: 1.7931035
    - first:
        name: _FresnelScale
      second: 0.86
    - first:
        name: _GerstnerIntensity
      second: 1.6714286
    - first:
        name: _GlossMapScale
      second: 1
    - first:
        name: _Glossiness
      second: 0.5
    - first:
        name: _GlossyReflections
      second: 1
    - first:
        name: _HeightDisplacement
      second: 3.2722514
    - first:
        name: _InvFade
      second: 0.628783
    - first:
        name: _InvFadeDepthFade
      second: 0.07197756
    - first:
        name: _InvFadeFoam
      second: 0.1217
    - first:
        name: _Metallic
      second: 0
    - first:
        name: _Mode
      second: 0
    - first:
        name: _NormalsDisplacement
      second: 0
    - first:
        name: _OcclusionStrength
      second: 1
    - first:
        name: _Parallax
      second: 0.02
    - first:
        name: _RandomHeight
      second: 0
    - first:
        name: _RandomSpeed
      second: 0
    - first:
        name: _ReflDistort
      second: 0.9267696
    - first:
        name: _RefrDistort
      second: 1.4393286
    - first:
        name: _Shininess
      second: 1
    - first:
        name: _ShoreTiling
      second: 56.862743
    - first:
        name: _SmoothnessTextureChannel
      second: 0
    - first:
        name: _SpecularHighlights
      second: 1
    - first:
        name: _Speed
      second: 0.4137931
    - first:
        name: _SrcBlend
      second: 1
    - first:
        name: _UVSec
      second: 0
    - first:
        name: _WaterDepth
      second: 40.98077
    - first:
        name: _WaveCapsAmount
      second: 0.18275861
    - first:
        name: _WaveFoamDistort
      second: 0.27931035
    - first:
        name: _WaveHeight
      second: 0.2
    - first:
        name: _WaveLength
      second: 10
    - first:
        name: _WaveScale
      second: 0.046289656
    - first:
        name: _WaveSpeed
      second: 3
    - first:
        name: _ZWrite
      second: 1
    m_Colors:
    - first:
        name: WaveSpeed
      second: {r: 1.086165, g: 4.440575, b: 12.105146, a: -3.0206447}
    - first:
        name: _AnimationDirection
      second: {r: 4, g: 4, b: 4, a: -1}
    - first:
        name: _AnimationTiling
      second: {r: 1, g: 1, b: 1, a: 1}
    - first:
        name: _BaseColor
      second: {r: 0.14057094, g: 0.46181673, b: 0.7647059, a: 0.82}
    - first:
        name: _BumpDirection
      second: {r: 40, g: 40, b: 40, a: -40}
    - first:
        name: _BumpMap_ST
      second: {r: 1, g: 1, b: 0, a: 0}
    - first:
        name: _BumpTiling
      second: {r: 0.1, g: 0.1, b: 0.1, a: 0.1}
    - first:
        name: _Color
      second: {r: 0.41176468, g: 0.2514855, b: 0.105968855, a: 0}
    - first:
        name: _DepthColor
      second: {r: 0.027511697, g: 0.14179105, b: 0.13226777, a: 0.4627451}
    - first:
        name: _DepthColorFade
      second: {r: 0.8880597, g: 0.27834705, b: 0.44463244, a: 0.22352941}
    - first:
        name: _Displacement
      second: {r: 6.6371665, g: 20.353983, b: -1, a: -0.681416}
    - first:
        name: _DisplacementXz
      second: {r: 0.6499999, g: -2.9203715, b: 1.6599998, a: -3.9363046}
    - first:
        name: _DistortParams
      second: {r: 42.2, g: 14.62, b: -2.1, a: 9.28}
    - first:
        name: _EmissionColor
      second: {r: 0, g: 0, b: 0, a: 1}
    - first:
        name: _Extinction
      second: {r: 4.5, g: 75, b: 300, a: 1}
    - first:
        name: _Foam
      second: {r: 1, g: 1, b: 0, a: 0}
    - first:
        name: _FoamWaveParams
      second: {r: 0, g: 0.24918434, b: 3.3395782, a: 1}
    - first:
        name: _Fresnel_ST
      second: {r: 1, g: 1, b: 0, a: 0}
    - first:
        name: _GAmplitude
      second: {r: 0.1, g: 0.1, b: 0.1, a: 0.1}
    - first:
        name: _GDirectionAB
      second: {r: 0.46914357, g: 0.35405126, b: -0.2, a: 0.1}
    - first:
        name: _GDirectionCD
      second: {r: 0.7033888, g: -0.6799999, b: 0.7175735, a: -0.2}
    - first:
        name: _GFrequency
      second: {r: 1, g: 1, b: 1, a: 1}
    - first:
        name: _GSpeed
      second: {r: 0.5, g: 0.5, b: 1, a: 1}
    - first:
        name: _GSteepness
      second: {r: 0.1, g: 0.1, b: 0.1, a: 0.1}
    - first:
        name: _HorizonColor
      second: {r: 0.052907113, g: 0.24486735, b: 0.2835821, a: 1}
    - first:
        name: _InvFadeParemeter
      second: {r: 1, g: 1, b: 1, a: 1}
    - first:
        name: _MainTex_ST
      second: {r: 1, g: 1, b: 0, a: 0}
    - first:
        name: _ReflectionColor
      second: {r: 0.15862082, g: 0, b: 1, a: 0}
    - first:
        name: _ReflectionTex_ST
      second: {r: 1, g: 1, b: 0, a: 0}
    - first:
        name: _ReflectiveColorCube_ST
      second: {r: 1, g: 1, b: 0, a: 0}
    - first:
        name: _ReflectiveColor_ST
      second: {r: 1, g: 1, b: 0, a: 0}
    - first:
        name: _RefrColor
      second: {r: 0.5233905, g: 0.9477612, b: 0.9121496, a: 1}
    - first:
        name: _RefrColorDepth
      second: {r: 0.050066825, g: 0.23134327, b: 0.17049524, a: 1}
    - first:
        name: _RefractionFog
      second: {r: 0.50543475, g: 0.50543475, b: 0.50543475, a: 0.5}
    - first:
        name: _RefractionTex_ST
      second: {r: 1, g: 1, b: 0, a: 0}
    - first:
        name: _ShoreColor
      second: {r: 1, g: 1, b: 1, a: 1}
    - first:
        name: _ShorePerturbation
      second: {r: 0, g: 0, b: 0, a: 0}
    - first:
        name: _ShoreTiling
      second: {r: 1, g: 1, b: 0.1, a: 0.1}
    - first:
        name: _SpecColor
      second: {r: 0.3897059, g: 0.5959433, b: 1, a: 0}
    - first:
        name: _SpecularColor
      second: {r: 0.6869053, g: 0.77205884, b: 0.77205884, a: 1}
    - first:
        name: _UnderwaterColor
      second: {r: 0.6950323, g: 0.89552236, b: 0.7502397, a: 1}
    - first:
        name: _WaveOffset
      second: {r: 1, g: 1, b: -0.01, a: -0.01}
    - first:
        name: _WaveScale4
      second: {r: 0.1, g: 0.1, b: 0.01, a: 0.01}
    - first:
        name: _WorldLightDir
      second: {r: -0.030375138, g: -0.20139083, b: -0.97903997, a: 0}
--- !u!1002 &2100001
EditorExtensionImpl:
  serializedVersion: 6
